{
    "name": "DevScene",
    "entity_definitions":
    [
        ["entities", "dev", "GameManager.json"],
        ["entities", "dev", "OrbitalCamera.json"],
        ["entities", "dev", "Player.json"],
        ["entities", "dev", "CannonBall.json"],
        ["entities", "dev", "Crate.json"]
    ],
    // "entity_groups":
    // [
    //     {
    //         "name": "group_a",
    //         "entity_groups":
    //         [
    //             {
    //                 "name": "group_b",
    //                 "entity_definitions":
    //                 [
    //                     ["entities", "dev", "SimpleMesh.json"]
    //                 ]
    //             }
    //         ]
    //     }
    // ],
    "initial_entities":
    [
        {
            "definition": "GameManager",
            "name": "game_manager"
        },
        {
            "definition": "OrbitalCamera",
            "name": "orbital_camera"
        },
        {
            "definition": "Player",
            "name": "player"
        },
        {
            "definition": "Crate",
            "parameter_overrides":
            {
                "transform::translation": [0.0, 0.5, 10.0]
            }
        },
        {
            "definition": "Crate",
            "parameter_overrides":
            {
                "transform::translation": [0.0, 0.5, -10.0]
            }
        },
        {
            "definition": "Crate",
            "parameter_overrides":
            {
                "transform::translation": [10.0, 0.5, 0.0]
            }
        },
        {
            "definition": "Crate",
            "parameter_overrides":
            {
                "transform::translation": [-10.0, 0.5, 0.0]
            }
        }
    ]
}
