{
    "name": "Mesh",
    "parameters":
    [
        {
            "name": "resource_path",
            "type": "resource",
            "size": 1,
            "default": ""
        },
        {
            "name": "resource_name",
            "type": "string",
            "size": 1,
            "default": ""
        },
        {
            "name": "transform",
            "type": "component:Transform",
            "size": 1,
            "default": ""
        },
        {
            "name": "material",
            "type": "component:Material",
            "size": 1,
            "default": ""
        },
        {
            "name": "cull_backfaces",
            "type": "bool",
            "size": 1,
            "default": true
        }
    ]
}
