{
    "name": "MatrixTransform",
    "parameters":
    [
        {
            "name": "matrix",
            "type": "float32",
            "size": 16,
            "default":
            [
                1.0, 0.0, 0.0, 0.0,
                0.0, 1.0, 0.0, 0.0,
                0.0, 0.0, 1.0, 0.0,
                0.0, 0.0, 0.0, 1.0
            ]
        },
        {
            "name": "constraint",
            "type": "int32",
            "size": 1,
            // TODO: better default and mapping
            "default": 0
        },
        {
            "name": "constrained_to",
            "type": "component:Transform",
            "size": 1,
            "default": ""
        }
    ]
}
