{
    "name": "physics",
    "type": "map",
    "description": "Controls which and how the physics subsystem is used.",
    "value":
    [
        {
            "name": "bind",
            "type": "map",
            "description": "Defines the dynamic library the physics subsystem will be bound from.",
            "value":
            [
                {
                    "name": "windows_path",
                    "type": "string",
                    "description": "The path to the physics subsystem dynamic library to use on Windows systems.",
                    "value": ["build", "windows", "Release", "bullet_physics.dll"]
                },
                {
                    "name": "linux_path",
                    "type": "string",
                    "description": "The path to the physics subsystem dynamic library to use on Linux systems.",
                    "value": ["build", "linux", "bullet_physics.so"]
                }
            ]
        }
    ]
}
